
# MV DNAcademy

C:/Projects
Z 


code Z:/

npm init -y
npm i json-server

cd /z/
docker run 
-it
-p 3000:3000 
-v "//$(pwd)/://home" 
node 
npx json-server -H 0.0.0.0 -s . ./db.json


# default  VM

C:/Projects
Z 



ls /z/ 

ifconfig eth1

192.268.??.??
